<svg width="100" height="100" viewBox="0 0 100 100" fill="none" xmlns="http://www.w3.org/2000/svg">
<path d="M83.9714 42.0054L68.8578 24.9973C66.5986 22.4892 63.3266 21 59.9767 21H24.9195C18.3754 21 13 26.4081 13 32.9919V66.9297C13 73.5919 18.3754 79 24.9195 79H59.8988C63.3266 79 66.5207 77.5108 68.7799 75.0027L83.8935 57.9946C88.0224 53.4486 88.0224 46.5514 83.9714 42.0054ZM78.6738 53.2135L63.5603 70.2216C62.6254 71.2405 61.301 71.8676 59.9767 71.8676H24.9195C22.2707 71.8676 20.0893 69.673 20.0893 67.0081V32.9919C20.0893 30.327 22.2707 28.1324 24.9195 28.1324H59.8988C61.301 28.1324 62.5475 28.7595 63.4824 29.7784L78.5959 46.7865C80.3098 48.5892 80.3098 51.4108 78.6738 53.2135Z" fill="#198aa6"/>
<path d="M35 45C37.7614 45 40 42.7614 40 40C40 37.2386 37.7614 35 35 35C32.2386 35 30 37.2386 30 40C30 42.7614 32.2386 45 35 45Z" fill="#198aa6"/>
<path d="M53 65C55.7614 65 58 62.7614 58 60C58 57.2386 55.7614 55 53 55C50.2386 55 48 57.2386 48 60C48 62.7614 50.2386 65 53 65Z" fill="#198aa6"/>
<path d="M56.7723 35.8258C55.2918 34.5974 53.0322 34.751 51.7855 36.2097L31.8381 59.2419C30.5914 60.7006 30.7472 62.9271 32.2277 64.1555C32.929 64.6929 33.7082 65 34.5653 65C35.5782 65 36.5912 64.6161 37.2925 63.7716L57.1619 40.7393C58.4086 39.2806 58.2528 37.131 56.7723 35.8258Z" fill="#198aa6"/>
</svg>
