<svg width="32" height="31" viewBox="0 0 32 31" fill="none" xmlns="http://www.w3.org/2000/svg">
<path d="M27.5805 1.63801e-10H4.18258C3.71501 -3.31458e-06 3.25201 0.0935419 2.82003 0.275294C2.38805 0.457045 1.99554 0.723444 1.66491 1.05928C1.33429 1.39512 1.07202 1.79381 0.893092 2.2326C0.714161 2.6714 0.622067 3.14169 0.62207 3.61663V27.3833C0.622066 27.8583 0.714158 28.3286 0.893089 28.7674C1.07202 29.2062 1.33428 29.6049 1.66491 29.9407C1.99553 30.2765 2.38804 30.5429 2.82002 30.7247C3.25201 30.9064 3.71501 31 4.18258 31H27.5805C28.5248 31 29.4304 30.619 30.0982 29.9407C30.7659 29.2624 31.141 28.3425 31.141 27.3833V3.61663C31.141 3.14169 31.0489 2.67139 30.87 2.2326C30.6911 1.79381 30.4288 1.39511 30.0982 1.05928C29.7675 0.72344 29.375 0.457041 28.943 0.27529C28.511 0.0935394 28.048 -4.51991e-06 27.5805 1.63801e-10ZM7.25148 25.3619C6.82476 25.3619 6.40762 25.2333 6.05281 24.9925C5.698 24.7517 5.42146 24.4094 5.25816 24.009C5.09486 23.6085 5.05213 23.1679 5.13538 22.7428C5.21862 22.3177 5.42411 21.9272 5.72585 21.6207C6.02759 21.3142 6.41202 21.1054 6.83055 21.0209C7.24907 20.9363 7.68288 20.9797 8.07712 21.1456C8.47135 21.3115 8.80831 21.5924 9.04539 21.9528C9.28246 22.3132 9.40899 22.7369 9.40899 23.1703C9.40898 23.7516 9.18167 24.309 8.77706 24.72C8.37245 25.131 7.82368 25.3618 7.25148 25.3619ZM7.25148 17.6915C6.82476 17.6915 6.40762 17.563 6.05281 17.3222C5.698 17.0814 5.42146 16.7391 5.25816 16.3387C5.09486 15.9382 5.05213 15.4976 5.13538 15.0724C5.21863 14.6473 5.42411 14.2568 5.72585 13.9503C6.02759 13.6438 6.41203 13.4351 6.83055 13.3505C7.24907 13.266 7.68288 13.3094 8.07712 13.4753C8.47135 13.6411 8.80831 13.922 9.04539 14.2824C9.28246 14.6428 9.40899 15.0666 9.40899 15.5C9.40898 16.0812 9.18167 16.6386 8.77706 17.0496C8.37245 17.4606 7.82368 17.6915 7.25148 17.6915ZM7.25148 10.0212C6.82476 10.0212 6.40762 9.89265 6.05282 9.65184C5.69801 9.41104 5.42147 9.06877 5.25817 8.66832C5.09486 8.26787 5.05213 7.82723 5.13538 7.40211C5.21862 6.97699 5.4241 6.5865 5.72583 6.28C6.02757 5.97351 6.412 5.76478 6.83052 5.68021C7.24904 5.59564 7.68284 5.63904 8.07708 5.80491C8.47132 5.97078 8.80828 6.25167 9.04536 6.61206C9.28244 6.97245 9.40898 7.39616 9.40899 7.82961C9.40899 8.41084 9.18168 8.96826 8.77707 9.37926C8.37246 9.79026 7.82369 10.0212 7.25148 10.0212ZM25.5904 24.2661H13.724C13.4382 24.2657 13.1642 24.15 12.9622 23.9446C12.7602 23.7391 12.6468 23.4607 12.6468 23.1703C12.6468 22.88 12.7602 22.6015 12.9622 22.396C13.1642 22.1906 13.4382 22.0749 13.724 22.0745H25.5904C25.8762 22.0749 26.1502 22.1906 26.3522 22.396C26.5542 22.6015 26.6676 22.88 26.6676 23.1703C26.6676 23.4607 26.5542 23.7391 26.3522 23.9446C26.1502 24.15 25.8762 24.2657 25.5904 24.2661ZM25.5904 16.5957H13.724C13.4382 16.5953 13.1642 16.4797 12.9622 16.2742C12.7602 16.0688 12.6468 15.7903 12.6468 15.5C12.6468 15.2096 12.7602 14.9311 12.9622 14.7257C13.1642 14.5202 13.4382 14.4046 13.724 14.4042H25.5904C25.8762 14.4046 26.1502 14.5202 26.3522 14.7257C26.5542 14.9311 26.6676 15.2096 26.6676 15.5C26.6676 15.7903 26.5542 16.0688 26.3522 16.2742C26.1502 16.4797 25.8762 16.5953 25.5904 16.5957ZM25.5904 8.9254H13.724C13.4379 8.9254 13.1635 8.80996 12.9612 8.60446C12.7589 8.39896 12.6452 8.12024 12.6452 7.82962C12.6452 7.53901 12.7589 7.26029 12.9612 7.05479C13.1635 6.84929 13.4379 6.73384 13.724 6.73384H25.5904C25.8765 6.73384 26.1509 6.84929 26.3532 7.05479C26.5555 7.26029 26.6692 7.53901 26.6692 7.82962C26.6692 8.12024 26.5555 8.39896 26.3532 8.60446C26.1509 8.80996 25.8765 8.9254 25.5904 8.9254Z" fill="#282D2F"/>
</svg>
